@startuml Sprzedarz_strona
left to right direction
skinparam packageStyle rect
skinparam shadowing false

'humans
actor klient
actor cukiernik
actor dostarczyciel
actor zaopatrzyciel

zaopatrzyciel -- (przeczytaj zamówienia)
zaopatrzyciel -- (dodaj do magazynu)

cukiernik -- (przeczytaj zamówienia)
cukiernik -- (wyjmij z magazynu)
cukiernik -- (dodaj do magazynu)

/'
dostarczyciel -- (przeczytaj zamówienia)

rectangle "Dostawa" {
dostarczyciel -- (dostarcz)
(potwierdź dostawę) -- klient

(dostarcz) .> (potwierdź dostawę) : include
(dostarcz) .> (stwierdź nieobecność odbiorcy) : include
}
'/

rectangle "Funkcjonalność sklepu online" {
klient -- (zobacz promocje)
klient -- (kup produkty)
klient -- (stworz produkt)
/'klient -- (wybierz ksztalt)
klient -- (wybierz składniki)
klient -- (wybierz parametry skladnikow)
klient -- (wybierz dodatki)
klient -- (wybierz sposob pakowania)
'/
(oblicz cene)
klient -- (zloz zamownienie)
(kup produkty) .> (zaplać bezgotówkowo) : include

(stworz produkt) -right-> (wybierz ksztalt)
(stworz produkt) -right-> (aaaa)
(aaaa) -left-> (bbb)

}
@enduml